<?xml version="1.0" standalone="no"?>
<!DOCTYPE svg PUBLIC "-//W3C//DTD SVG 1.1//EN" "http://www.w3.org/Graphics/SVG/1.1/DTD/svg11.dtd" >
<svg xmlns="http://www.w3.org/2000/svg">
<metadata>Generated by IcoMoon</metadata>
<defs>
<font id="icomoon" horiz-adv-x="1024">
<font-face units-per-em="1024" ascent="960" descent="-64" />
<missing-glyph horiz-adv-x="1024" />
<glyph unicode="&#x20;" d="" horiz-adv-x="512" />
<glyph unicode="&#xe080;" d="M469.333 853.334q83 0 160.667-31.333 79.667-32.333 141-93.667 0.333-0.333 125-122.333v162q0 17.667 12.5 30.167t30.167 12.5 30.167-12.5 12.5-30.167v-256q0-17.667-12.5-30.167t-30.167-12.5h-256q-17.667 0-30.167 12.5t-12.5 30.167 12.5 30.167 30.167 12.5h144q-92.667 90-116 113.333-49.667 49.667-113 75-61 25-128.333 25t-128.333-25q-63.667-25.333-113-75-49.333-49.333-75-113-25-61-25-128.333t25-128.333q25.667-63.667 75-113 49.333-49.667 113-75 61-25 128.333-25t128.333 25q63.333 25.333 113 75 55.333 55.333 80.667 127.667 5.667 16.667 21.667 24.167t32.667 1.833q16.667-6 24.333-22t1.667-32.667q-15.333-43.667-41.5-85.333t-59.167-74q-61.333-61.333-141-93.667-77.667-31.333-160.667-31.333t-160.667 31.333q-79.667 32.333-141 93.667t-93.667 141q-31.333 77.667-31.333 160.667t31.333 160.667q32.333 79.667 93.667 141t141 93.667q77.667 31.333 160.667 31.333z" />
<glyph unicode="&#xe094;" d="M426.667 768q17.667 0 30.167-12.5t12.5-30.167q0-18-12.667-30.333l-225.667-225.667h665q17.667 0 30.167-12.5t12.5-30.167-12.5-30.167-30.167-12.5h-665l225.667-225.667q12.667-12.333 12.667-30.333 0-17.667-12.5-30.167t-30.167-12.5q-18 0-30.333 12.333l-298.667 298.667q-12.333 13-12.333 30.333t12.333 30.333l298.667 298.667q12.667 12.333 30.333 12.333z" />
<glyph unicode="&#xe095;" d="M597.333 768q18 0 30.333-12.333l298.667-298.667q12.333-12.333 12.333-30.333t-12.333-30.333l-298.667-298.667q-12.333-12.333-30.333-12.333-18.333 0-30.5 12.167t-12.167 30.5q0 18 12.333 30.333l226 225.667h-665q-17.667 0-30.167 12.5t-12.5 30.167 12.5 30.167 30.167 12.5h665l-226 225.667q-12.333 12.333-12.333 30.333 0 18.333 12.167 30.5t30.5 12.167z" />
<glyph unicode="&#xe600;" d="M925.714 717.714q-38.286-56-92.571-95.429 0.571-8 0.571-24 0-74.286-21.714-148.286t-66-142-105.429-120.286-147.429-83.429-184.571-31.143q-154.857 0-283.429 82.857 20-2.286 44.571-2.286 128.571 0 229.143 78.857-60 1.143-107.429 36.857t-65.143 91.143q18.857-2.857 34.857-2.857 24.571 0 48.571 6.286-64 13.143-106 63.714t-42 117.429v2.286q38.857-21.714 83.429-23.429-37.714 25.143-60 65.714t-22.286 88q0 50.286 25.143 93.143 69.143-85.143 168.286-136.286t212.286-56.857q-4.571 21.714-4.571 42.286 0 76.571 54 130.571t130.571 54q80 0 134.857-58.286 62.286 12 117.143 44.571-21.143-65.714-81.143-101.714 53.143 5.714 106.286 28.571z" horiz-adv-x="951" />
<glyph unicode="&#xe601;" d="M1095.429 653.714q13.143-36.571-85.714-168-13.714-18.286-37.143-48.571-44.571-57.143-51.429-74.857-9.714-23.429 8-46.286 9.714-12 46.286-46.857h0.571l2.286-2.286q80.571-74.857 109.143-126.286 1.714-2.857 3.714-7.143t4-15.143-0.286-19.429-14.286-15.714-33.714-7.143l-146.286-2.286q-13.714-2.857-32 2.857t-29.714 12.571l-11.429 6.857q-17.143 12-40 36.571t-39.143 44.286-34.857 33.143-32.286 8.857q-1.714-0.571-4.571-2t-9.714-8.286-12.286-16.857-9.714-29.714-3.714-44.286q0-8.571-2-15.714t-4.286-10.571l-2.286-2.857q-10.286-10.857-30.286-12.571h-65.714q-40.571-2.286-83.429 9.429t-75.143 30.286-58.857 37.714-40.286 32.857l-14.286 13.714q-5.714 5.714-15.714 17.143t-40.857 52-60.571 86.286-70 120.571-74.571 155.429q-3.429 9.143-3.429 15.429t1.714 9.143l2.286 3.429q8.571 10.857 32.571 10.857l156.571 1.143q6.857-1.143 13.143-3.714t9.143-4.857l2.857-1.714q9.143-6.286 13.714-18.286 11.429-28.571 26.286-59.143t23.429-46.571l9.143-16.571q16.571-34.286 32-59.429t27.714-39.143 23.714-22 19.429-8 15.429 2.857q1.143 0.571 2.857 2.857t6.857 12.571 7.714 26.857 5.429 46.286 0 71.429q-1.143 22.857-5.143 41.714t-8 26.286l-3.429 6.857q-14.286 19.429-48.571 24.571-7.429 1.143 2.857 13.714 9.714 10.857 21.714 17.143 30.286 14.857 136.571 13.714 46.857-0.571 77.143-7.429 11.429-2.857 19.143-7.714t11.714-13.714 6-18.286 2-26-0.571-31.429-1.429-40.286-0.857-47.143q0-6.286-0.571-24t-0.286-27.429 2-23.143 6.571-22.286 12.857-14q4.571-1.143 9.714-2.286t14.857 6.286 21.714 19.714 29.714 38.286 38.857 61.429q34.286 59.429 61.143 128.571 2.286 5.714 5.714 10t6.286 6l2.286 1.714 2.857 1.429t7.429 1.714 11.429 0.286l164.571 1.143q22.286 2.857 36.571-1.429t17.714-9.429z" horiz-adv-x="1097" />
<glyph unicode="&#xe602;" d="M730.857 921.143v-150.857h-89.714c-32.763 0-54.857-6.857-66.286-20.571s-17.143-34.286-17.143-61.714v-108h167.429l-22.286-169.143h-145.143v-433.714h-174.857v433.714h-145.714v169.143h145.714v124.571c0 70.857 19.81 125.81 59.429 164.857 39.621 39.047 92.379 58.571 158.286 58.571 56 0 99.429-2.286 130.286-6.857z" horiz-adv-x="951" />
<glyph unicode="&#xe603;" d="M1126.4 904.533h-1075.2v-716.8h647.629l325.171-260.147v260.147h153.6v716.8h-51.2zM1126.4 238.933h-153.6v-204.8l-256 204.8h-614.4v614.4h1024v-614.4zM366.899 443.733c56.525 0 102.4 45.875 102.4 102.4s-45.875 102.4-102.4 102.4-102.349-45.875-102.349-102.4 45.824-102.4 102.349-102.4zM366.899 597.333c28.211 0 51.2-22.989 51.2-51.2s-22.989-51.2-51.2-51.2c-28.211 0-51.149 22.989-51.149 51.2s22.938 51.2 51.149 51.2zM614.4 443.733c56.576 0 102.451 45.875 102.451 102.4s-45.875 102.4-102.451 102.4c-56.525 0-102.4-45.875-102.4-102.4s45.875-102.4 102.4-102.4zM614.4 597.333c28.262 0 51.251-22.989 51.251-51.2s-22.989-51.2-51.251-51.2c-28.211 0-51.2 22.989-51.2 51.2s22.989 51.2 51.2 51.2zM861.901 443.733c56.525 0 102.4 45.875 102.4 102.4s-45.875 102.4-102.4 102.4-102.4-45.875-102.4-102.4 45.824-102.4 102.4-102.4zM861.901 597.333c28.262 0 51.2-22.989 51.2-51.2s-22.938-51.2-51.2-51.2-51.2 22.989-51.2 51.2 22.938 51.2 51.2 51.2z" horiz-adv-x="1229" />
<glyph unicode="&#xe604;" d="M697.6 755.439c100.301 0 200.499-83.814 200.499-210.125 0-222.515-386.099-407.706-386.099-407.706s-386.15 185.19-386.15 407.706c0 126.157 103.731 209.766 205.107 209.766 77.363 0 153.344-48.589 181.043-163.942 32.461 115.61 109.107 164.301 185.6 164.301zM697.6 806.639c-75.008 0-139.213-34.048-184.064-94.669-49.306 67.84-120.576 94.31-182.528 94.31-123.29 0-256.358-99.789-256.358-260.966 0-247.603 372.685-433.51 415.181-453.837l22.17-10.65 22.17 10.65c42.547 20.326 415.13 206.234 415.13 453.837 0 161.434-130.714 261.325-251.699 261.325v0z" />
<glyph unicode="&#xe605;" d="M802.56 892.552l-2.458 11.981h-18.176c-3.43 0-86.374 5.274-191.846-44.8-96.717-45.875-231.578-140.749-325.12-346.829-40.499-89.19-37.99-175.77 6.861-240.128l1.075 1.434 20.378 45.363c-23.245 49.715-20.173 113.613 9.523 179.046 2.56 5.581 5.222 10.854 7.834 16.282 10.906-15.718 37.786-43.725 99.277-64.41-26.982 25.088-48.384 101.786-57.856 140.646 29.696 47.923 61.645 87.501 93.85 120.269 14.848-13.056 41.83-32.205 85.658-47.36-18.995 16.742-33.331 58.778-41.472 88.218 41.114 34.253 81.152 58.368 115.866 74.957 68.045 32.614 126.618 42.957 155.955 46.234-0.563-31.078-6.758-100.762-40.448-215.398-26.317-13.414-75.878-36.147-104.653-32.512 35.328-20.019 64.358-28.314 84.275-31.744-14.080-41.83-31.181-88.166-52.48-139.776-36.506-18.893-105.216-51.302-140.851-47.718 49.562-28.774 85.453-33.229 106.291-32.461-1.946-4.454-3.738-8.602-5.786-13.107-49.92-109.875-143.923-156.723-234.496-117.35l90.419 199.168c0 0-115.814-116.992-243.712-398.694l35.379-60.314 100.813 222.054c111.565-48.845 230.246 4.659 289.536 135.117 176.435 388.813 157.235 545.229 156.365 551.834z" />
<glyph unicode="&#xe606;" d="M722.352 643.858c17.849 123.95-62.434 258.423-209.874 283.435-125.17 21.17-272.951-54.43-296.144-206.192-51.168-334.343 457.911-412.949 506.018-77.243zM462.567 781.252c145.84 10.167 147.481-204.752 11.086-206.393-139.115-1.719-149.28 196.75-11.086 206.393zM590.037 222.027c23.616 15.89 221.001 61.275 163.008 164.133-68.034 120.546-157.003-85.127-386.869-11.728-60.672 19.41-95.173 59.833-146.56 23.175-42.864-30.535-36.341-92.135-0.859-118.987 35.378-26.695 110.578-50.75 155.225-60.631-42.862-65.518-218.64-176.699-129.131-252.578 74.72-63.237 148.601 51.065 239.611 146.197 34.857-27.093 74.841-66.955 108.139-98.731 38.821-37.019 92.050-83.365 141.92-32.978 71.957 72.597-49.63 152.041-144.485 242.13z" horiz-adv-x="951" />
<glyph unicode="&#xe607;" d="M697.6 806.639c-75.008 0-139.213-34.048-184.064-94.669-49.306 67.84-120.576 94.31-182.528 94.31-123.29 0-256.358-99.789-256.358-260.966 0-247.552 372.685-433.459 415.181-453.837l22.17-10.65 22.17 10.65c42.547 20.326 415.13 206.234 415.13 453.837 0 161.434-130.714 261.325-251.699 261.325v0z" />
<glyph unicode="&#xe608;" d="M977.459 790.357c0 0-5.018 0.307-13.875 0.307-45.363 0-159.59-7.731-240.486-79.206-72.96-64.461-96.563-161.126-104.141-210.176-40.243 95.334-117.504 173.824-216.883 214.528-8.243 18.125-52.275 107.11-137.728 141.312-24.883 9.984-52.89 15.002-83.302 15.002-63.898 0-116.378-22.067-118.579-22.989l-8.499-3.635 3.533-8.397c1.843-4.403 45.926-107.315 139.213-144.691 24.883-9.984 52.89-15.053 83.251-15.053 54.835 0 101.171 16.128 114.637 21.402 141.875-58.010 236.595-196.762 236.595-349.133 0-27.75-3.226-54.938-9.062-81.408-23.347 49.459-95.539 180.378-226.765 236.186-45.21 19.302-96.819 29.082-153.242 29.082-106.342 0-192.614-34.15-196.25-35.584l-8.55-3.482 3.328-8.499c3.021-7.629 75.418-187.443 235.315-255.488 45.261-19.251 96.819-28.979 153.242-28.979 83.866 0 155.034 21.197 183.296 30.874-26.982-81.971-82.022-153.293-158.106-201.37l10.086-15.616c116.173 73.318 185.446 198.298 185.446 334.285 0 38.042-5.786 75.315-16.384 110.848 1.382 0 2.867-0.051 4.557-0.051 45.363 0 159.642 7.731 240.538 79.206 99.021 87.501 107.315 234.752 107.622 240.998l0.461 9.114-9.267 0.614zM375.296 726.664l-137.626 55.194-29.952 70.093c17.715-2.048 34.406-5.939 49.613-11.981 61.184-24.576 100.352-81.92 117.965-113.306zM186.675 853.333l26.368-61.594-120.32 48.179c20.48 6.144 52.685 13.67 88.32 13.67 1.946 0 3.738-0.205 5.632-0.256zM85.709 822.767l184.218-73.779-79.667-33.28c-53.504 26.982-88.218 78.131-104.55 107.059zM214.784 705.826l79.718 33.229 73.779-29.542c-20.48-6.144-52.685-13.619-88.371-13.619-23.45 0.051-45.21 3.482-65.126 9.933zM749.926 709.256c69.99 52.531 162.048 61.44 202.496 62.669l-209.408-184.986 6.912 122.317zM964.915 758.050c-4.198-28.877-14.848-80.282-41.267-129.946l-99.635 5.427 140.902 124.518zM730.214 692.411l-6.912-122.982-86.426-76.39c6.298 43.315 27.29 137.011 93.338 199.373zM603.443 263.56l-260.506 110.848-55.552 137.984c36.25-3.738 70.042-11.93 100.557-24.934 121.139-51.558 191.283-174.438 215.501-223.898zM266.598 513.877l51.968-129.075-243.302 103.578c32.051 10.086 95.232 26.573 166.861 26.573 8.397 0 16.384-0.614 24.474-1.075zM67.891 471.33l354.56-150.886-160.051-62.925c-108.237 55.962-171.725 167.27-194.509 213.811zM285.645 246.613l161.178 63.386 149.248-63.488c-32.102-10.086-95.386-26.573-166.912-26.573-52.89 0.051-101.171 9.114-143.514 26.675zM866.15 553.506c-71.219-62.925-173.517-73.011-216.781-74.291l154.88 136.909 109.005-5.99c-12.595-20.326-28.058-39.782-47.104-56.627z" />
<glyph unicode="&#xe609;" d="M909.875 790.152l-0.051 4.403-134.298 118.989h-527.002l-134.246-118.989-20.89-820.634h837.222l-20.736 816.23zM872.858 800.034h-227.277l125.389 90.368 101.888-90.368zM740.096 893.218l-185.805-133.786-82.893 0.051-187.238 133.734h455.936zM253.082 890.402l126.515-90.368h-228.403l101.888 90.368zM134.4 779.707h271.565v1.536l58.829-42.035 96.102-0.102 58.573 42.138v-1.485h270.234l8.294-328.243c0-54.323-64.614-89.395-164.608-89.395-46.643 0-93.286 11.213-142.643 23.091-60.006 14.387-128 30.771-210.483 30.771-124.979 0-217.242-30.618-257.178-81.408l11.315 445.133zM114.381-5.701l7.117 278.528c0 74.598 101.53 122.778 258.765 122.778 80.077 0 146.79-16.026 205.67-30.208 50.586-12.134 98.406-23.654 147.507-23.654 78.438 0 137.421 20.992 165.939 56.32l10.24-403.814h-795.238zM557.619 840.687l-89.446 0.051v-20.275l89.446-0.051v20.275z" />
</font></defs></svg>