<?xml version="1.0" encoding="utf-8"?>
<!-- Generator: Adobe Illustrator 16.0.0, SVG Export Plug-In . SVG Version: 6.00 Build 0)  -->
<!DOCTYPE svg PUBLIC "-//W3C//DTD SVG 1.1//EN" "http://www.w3.org/Graphics/SVG/1.1/DTD/svg11.dtd">
<svg version="1.1" xmlns="http://www.w3.org/2000/svg" xmlns:xlink="http://www.w3.org/1999/xlink" x="0px" y="0px" width="20px"
	 height="20px" viewBox="0 0 20 20" enable-background="new 0 0 20 20" xml:space="preserve">
<g>
	<g>
		<path fill="#8E1414" d="M17.771,3.234L17.77,3.148l-2.623-2.324H4.854L2.232,3.148L1.824,19.176h16.352L17.771,3.234z
			 M17.048,3.041h-4.439l2.449-1.765L17.048,3.041z M14.455,1.221l-3.629,2.613L9.207,3.833L5.55,1.221H14.455z M4.943,1.276
			l2.471,1.765H2.953L4.943,1.276z M2.625,3.438h5.304V3.408l1.149,0.821l1.877,0.002l1.144-0.823v0.029h5.278l0.162,6.411
			c0,1.061-1.262,1.746-3.215,1.746c-0.911,0-1.822-0.219-2.786-0.451c-1.172-0.281-2.5-0.601-4.111-0.601
			c-2.441,0-4.243,0.598-5.023,1.59L2.625,3.438z M2.234,18.778l0.139-5.44c0-1.457,1.983-2.398,5.054-2.398
			c1.564,0,2.867,0.313,4.017,0.59c0.988,0.237,1.922,0.462,2.881,0.462c1.532,0,2.684-0.41,3.241-1.1l0.2,7.887H2.234z
			 M10.891,2.247L9.144,2.246v0.396l1.747,0.001V2.247z"/>
	</g>
</g>
</svg>
