<?xml version="1.0" encoding="utf-8"?>
<!-- Generator: Adobe Illustrator 16.0.0, SVG Export Plug-In . SVG Version: 6.00 Build 0)  -->
<!DOCTYPE svg PUBLIC "-//W3C//DTD SVG 1.1//EN" "http://www.w3.org/Graphics/SVG/1.1/DTD/svg11.dtd">
<svg version="1.1" xmlns="http://www.w3.org/2000/svg" xmlns:xlink="http://www.w3.org/1999/xlink" x="0px" y="0px" width="416px"
	 height="448px" viewBox="0 0 416 448" enable-background="new 0 0 416 448" xml:space="preserve">
<g>
	<g>
		<path d="M316.029,134.312c7.809-54.228-27.315-113.06-91.82-124.003c-54.762-9.262-119.416,23.813-129.563,90.209
			C72.26,246.793,294.982,281.183,316.029,134.312z M202.373,74.202c63.805-4.448,64.523,89.579,4.85,90.297
			C146.36,165.251,141.913,78.421,202.373,74.202z M258.141,318.863c10.332-6.952,96.688-26.808,71.316-71.808
			c-29.765-52.739-68.689,37.243-169.255,5.131c-26.544-8.492-41.638-26.177-64.12-10.139
			c-18.753,13.359-15.899,40.309-0.376,52.057c15.478,11.679,48.378,22.203,67.911,26.526
			c-18.752,28.664-95.655,77.306-56.495,110.503c32.69,27.666,65.013-22.341,104.83-63.961
			c15.25,11.853,32.743,29.293,47.311,43.195c16.984,16.196,40.272,36.472,62.09,14.428
			C352.834,393.034,299.64,358.277,258.141,318.863z"/>
	</g>
</g>
</svg>
