<?xml version="1.0" encoding="utf-8"?>
<!-- Generator: Adobe Illustrator 16.0.0, SVG Export Plug-In . SVG Version: 6.00 Build 0)  -->
<!DOCTYPE svg PUBLIC "-//W3C//DTD SVG 1.1//EN" "http://www.w3.org/Graphics/SVG/1.1/DTD/svg11.dtd">
<svg version="1.1" id="Слой_1" xmlns="http://www.w3.org/2000/svg" xmlns:xlink="http://www.w3.org/1999/xlink" x="0px" y="0px"
	 width="20px" height="20px" viewBox="0 0 20 20" enable-background="new 0 0 20 20" xml:space="preserve">
<path fill="#165F40" d="M13.625,3.912c1.959,0,3.916,1.637,3.916,4.104c0,4.346-7.541,7.963-7.541,7.963s-7.542-3.617-7.542-7.963
	c0-2.464,2.026-4.097,4.006-4.097c1.511,0,2.995,0.949,3.536,3.202C10.634,4.863,12.131,3.912,13.625,3.912 M13.625,2.912
	c-1.465,0-2.719,0.665-3.595,1.849C9.067,3.436,7.675,2.919,6.465,2.919c-2.408,0-5.007,1.949-5.007,5.097
	c0,4.836,7.279,8.467,8.109,8.864L10,17.088l0.433-0.208c0.831-0.397,8.108-4.028,8.108-8.864
	C18.541,4.863,15.988,2.912,13.625,2.912L13.625,2.912z"/>
</svg>
