<?xml version="1.0" encoding="utf-8"?>
<!-- Generator: Adobe Illustrator 16.0.0, SVG Export Plug-In . SVG Version: 6.00 Build 0)  -->
<!DOCTYPE svg PUBLIC "-//W3C//DTD SVG 1.1//EN" "http://www.w3.org/Graphics/SVG/1.1/DTD/svg11.dtd">
<svg version="1.1" xmlns="http://www.w3.org/2000/svg" xmlns:xlink="http://www.w3.org/1999/xlink" x="0px" y="0px" width="24px"
	 height="20px" viewBox="0 0 24 20" enable-background="new 0 0 24 20" xml:space="preserve">
<path fill="#165F40" d="M22,1H2H1v1v12v1h1h11.649l4.726,3.781l1.625,1.3V18v-3h2h1v-1V2V1H22z M22,14h-3v4l-5-4H2V2h20V14z"/>
<path fill="#165F40" d="M7.166,10c1.104,0,2-0.896,2-2s-0.896-2-2-2S5.167,6.896,5.167,8S6.062,10,7.166,10z M7.166,7
	c0.551,0,1,0.449,1,1s-0.449,1-1,1C6.615,9,6.167,8.551,6.167,8S6.615,7,7.166,7z"/>
<path fill="#165F40" d="M12,10c1.105,0,2.001-0.896,2.001-2S13.105,6,12,6c-1.104,0-2,0.896-2,2S10.896,10,12,10z M12,7
	c0.552,0,1.001,0.449,1.001,1S12.552,9,12,9c-0.551,0-1-0.449-1-1S11.449,7,12,7z"/>
<path fill="#165F40" d="M16.834,10c1.104,0,2-0.896,2-2s-0.896-2-2-2s-2,0.896-2,2S15.729,10,16.834,10z M16.834,7
	c0.552,0,1,0.449,1,1s-0.448,1-1,1s-1-0.449-1-1S16.282,7,16.834,7z"/>
</svg>
